{
  "content": [
    {
      "id": 1,
      "caseName": "절도(인정된죄명:재물손괴·횡령)[권원없이 식재한 수목의 과실을 수취한 행위가 재물손괴죄 또는 횡령죄에 해당하는지 문제 된 사건]",
      "caseNumber": "2025도978",
      "sentencingDate": "2025-07-17"
    },
    {
      "id": 2,
      "caseName": "강도치상·특정범죄가중처벌등에관한법률위반(절도)[「특정범죄 가중처벌 등에 관한 법률」(이하 ‘특정범죄가중법’) 제5조의4 제6항에서 정한 ‘상습적으로 절도죄 등으로 실형을 선고받고’의 의미가 문제된 사건]",
      "caseNumber": "2024도20290",
      "sentencingDate": "2025-03-27"
    }
  ],
  "totalElements": 1097,
  "totalPages": 549,
  "pageNumber": 0,
  "pageSize": 2
}
